%YAML 1.1
%TAG !u! tag:unity3d.com,2011:
--- !u!74 &7400000
AnimationClip:
  m_ObjectHideFlags: 0
  m_PrefabParentObject: {fileID: 0}
  m_PrefabInternal: {fileID: 0}
  m_Name: Walking_NoShield
  serializedVersion: 6
  m_Legacy: 0
  m_Compressed: 0
  m_UseHighQualityCurve: 1
  m_RotationCurves: []
  m_CompressedRotationCurves: []
  m_EulerCurves: []
  m_PositionCurves: []
  m_ScaleCurves: []
  m_FloatCurves: []
  m_PPtrCurves:
  - curve:
    - time: 0
      value: {fileID: 21300000, guid: 2ad2f67ed0c3c1a45bfc87a214aff0dd, type: 3}
    - time: 0.083333336
      value: {fileID: 21300000, guid: c72e1c71b2be2a047b3a73f24bc1926c, type: 3}
    - time: 0.16666667
      value: {fileID: 21300000, guid: eaa35a878d8adbd4881889e9102ea583, type: 3}
    - time: 0.25
      value: {fileID: 21300000, guid: dd711178280ab454aa2d7b75f88d3d81, type: 3}
    - time: 0.33333334
      value: {fileID: 21300000, guid: a1c804c0da7cd2440ab4910c3d6255bf, type: 3}
    - time: 0.41666666
      value: {fileID: 21300000, guid: 7c40c5f6faf841e47ab8aedddb47ac8d, type: 3}
    - time: 0.5
      value: {fileID: 21300000, guid: 1491af6ade4c3164e8a0445eac23b634, type: 3}
    - time: 0.5833333
      value: {fileID: 21300000, guid: dfec2310666552e4c93ee4dba531a583, type: 3}
    attribute: m_Sprite
    path: 
    classID: 212
    script: {fileID: 0}
  m_SampleRate: 12
  m_WrapMode: 0
  m_Bounds:
    m_Center: {x: 0, y: 0, z: 0}
    m_Extent: {x: 0, y: 0, z: 0}
  m_ClipBindingConstant:
    genericBindings:
    - serializedVersion: 2
      path: 0
      attribute: 0
      script: {fileID: 0}
      typeID: 212
      customType: 23
      isPPtrCurve: 1
    pptrCurveMapping:
    - {fileID: 21300000, guid: 2ad2f67ed0c3c1a45bfc87a214aff0dd, type: 3}
    - {fileID: 21300000, guid: c72e1c71b2be2a047b3a73f24bc1926c, type: 3}
    - {fileID: 21300000, guid: eaa35a878d8adbd4881889e9102ea583, type: 3}
    - {fileID: 21300000, guid: dd711178280ab454aa2d7b75f88d3d81, type: 3}
    - {fileID: 21300000, guid: a1c804c0da7cd2440ab4910c3d6255bf, type: 3}
    - {fileID: 21300000, guid: 7c40c5f6faf841e47ab8aedddb47ac8d, type: 3}
    - {fileID: 21300000, guid: 1491af6ade4c3164e8a0445eac23b634, type: 3}
    - {fileID: 21300000, guid: dfec2310666552e4c93ee4dba531a583, type: 3}
  m_AnimationClipSettings:
    serializedVersion: 2
    m_AdditiveReferencePoseClip: {fileID: 0}
    m_AdditiveReferencePoseTime: 0
    m_StartTime: 0
    m_StopTime: 0.6666666
    m_OrientationOffsetY: 0
    m_Level: 0
    m_CycleOffset: 0
    m_HasAdditiveReferencePose: 0
    m_LoopTime: 1
    m_LoopBlend: 0
    m_LoopBlendOrientation: 0
    m_LoopBlendPositionY: 0
    m_LoopBlendPositionXZ: 0
    m_KeepOriginalOrientation: 0
    m_KeepOriginalPositionY: 1
    m_KeepOriginalPositionXZ: 0
    m_HeightFromFeet: 0
    m_Mirror: 0
  m_EditorCurves: []
  m_EulerEditorCurves: []
  m_HasGenericRootTransform: 0
  m_HasMotionFloatCurves: 0
  m_GenerateMotionCurves: 0
  m_Events: []
